module github.com/influxdata/flux

go 1.12

require (
	cloud.google.com/go v0.52.0
	cloud.google.com/go/bigtable v1.3.0
	github.com/Azure/go-autorest/autorest v0.10.1
	github.com/Azure/go-autorest/autorest/adal v0.8.3
	github.com/Azure/go-autorest/autorest/azure/auth v0.4.2
	github.com/DATA-DOG/go-sqlmock v1.4.1
	github.com/HdrHistogram/hdrhistogram-go v1.1.0 // indirect
	github.com/SAP/go-hdb v0.14.1
	github.com/andreyvit/diff v0.0.0-20170406064948-c7f18ee00883
	github.com/apache/arrow/go/arrow v0.0.0-20200923215132-ac86123a3f01
	github.com/benbjohnson/immutable v0.2.1
	github.com/bonitoo-io/go-sql-bigquery v0.3.4-1.4.0
	github.com/c-bata/go-prompt v0.2.2
	github.com/cespare/xxhash/v2 v2.1.1
	github.com/dave/jennifer v1.2.0
	github.com/denisenkom/go-mssqldb v0.10.0
	github.com/eclipse/paho.mqtt.golang v1.2.0
	github.com/foxcpp/go-mockdns v0.0.0-20201212160233-ede2f9158d15
	github.com/go-sql-driver/mysql v1.5.0
	github.com/gofrs/uuid v3.3.0+incompatible
	github.com/golang/geo v0.0.0-20190916061304-5b978397cfec
	github.com/golang/snappy v0.0.0-20180518054509-2e65f85255db // indirect
	github.com/google/flatbuffers v2.0.0+incompatible
	github.com/google/go-cmp v0.5.4
	github.com/google/uuid v1.1.1 // indirect
	github.com/inconshreveable/mousetrap v1.0.0 // indirect
	github.com/influxdata/influxdb-client-go/v2 v2.3.1-0.20210518120617-5d1fff431040
	github.com/influxdata/line-protocol v0.0.0-20200327222509-2487e7298839
	github.com/influxdata/pkg-config v0.2.8
	github.com/influxdata/promql/v2 v2.12.0
	github.com/influxdata/tdigest v0.0.2-0.20210216194612-fc98d27c9e8b
	github.com/lib/pq v1.0.0
	github.com/mattn/go-runewidth v0.0.3 // indirect
	github.com/mattn/go-sqlite3 v1.11.0
	github.com/mattn/go-tty v0.0.0-20180907095812-13ff1204f104 // indirect
	github.com/matttproud/golang_protobuf_extensions v1.0.1
	github.com/opentracing/opentracing-go v1.2.0
	github.com/pierrec/lz4 v2.0.5+incompatible // indirect
	github.com/pkg/browser v0.0.0-20180916011732-0a3d74bf9ce4 // indirect
	github.com/pkg/errors v0.9.1
	github.com/pkg/term v0.0.0-20180730021639-bffc007b7fd5 // indirect
	github.com/prometheus/client_model v0.0.0-20190812154241-14fe0d1b01d4
	github.com/prometheus/common v0.6.0
	github.com/segmentio/kafka-go v0.1.0
	github.com/sergi/go-diff v1.0.0 // indirect
	github.com/snowflakedb/gosnowflake v1.3.4
	github.com/spf13/cobra v0.0.3
	github.com/uber/athenadriver v1.1.4
	github.com/uber/jaeger-client-go v2.28.0+incompatible
	github.com/uber/jaeger-lib v2.4.1+incompatible // indirect
	go.uber.org/zap v1.14.0
	golang.org/x/exp v0.0.0-20200224162631-6cc2880d07d6
	golang.org/x/net v0.0.0-20210119194325-5f4716e94777
	golang.org/x/tools v0.0.0-20200721032237-77f530d86f9a
	gonum.org/v1/gonum v0.8.2
	google.golang.org/api v0.17.0
)
